{
  "config": {
    "InboundConverter": {
      "data_tag": "attributes",
      "rules": [
        { "rule": "is_eu_allowed", "rule_set": "inbound_converter", "var": "is_eu_allowed", "is_eu_allowed": [1, 2, 3, 4, 5]},
        { "rule": "get_gdpr_region", "rule_set": "inbound_converter", "var": "REGION_CD", "collection": "maxmind"},
        { "rule": "is_gdpr_allowed", "rule_set": "inbound_converter", "var": "EU_ALLOWED"},
        { "rule": "get_external_id", "rule_set": "inbound_converter", "var": "DOMAIN", "collection": "kickfire"},
        { "rule": "decode_url", "rule_set": "inbound_converter", "var": "REF_PARAM", "input_col": "REF_PARAM" },
        { "rule": "classify_url", "rule_set": "classification", "var": "PAGE_TYPE", "fields": ["REF_PARAM"] },
        { "rule": "add_audit_columns", "rule_set": "inbound_converter" },
        { "rule": "add_partition_columns", "rule_set": "inbound_converter" }
      ],
      "load": {
        "tables": [
          {
            "table_name": "tt-{}.edc_inboundconverter.inbound_converter",
            "columns": [
              "LOGSTASH_ID",
              "ACTIVITY_TYPE_ID",
              "VERSION",
              "CID",
              "REF_PARAM",
              "REFERER",
              "USER_AGENT",
              "REGION_CD",
              "ACTIVITY_DATE",
              "EU_ALLOWED",
              "DOMAIN",
              "ACTIVITY_MILLIS",
              "IS_ISP",
              "DATE_CREATED",
              "DATE_MODIFIED",
              "PAGE_TYPE",
              "PAGE_TITLE",
              "PAGE_TEXT_COUNT"
            ],
            "enabled": true
          },
          {
            "table_name": "tt-{}.edc_inboundconverter.inbound_converter_ip_lookup",
            "columns": ["LOGSTASH_ID", "ACTIVITY_IP", "ACTIVITY_DATE"],
            "enabled": true,
            "rules": [{ "rule": "filter_key_false", "column": "EU_ALLOWED", "rule_set": "filter_inbound_converter" }]
          }
        ],
        "rules": [
          { "rule": "filter_key_default", "column": "DOMAIN", "rule_set": "filter_inbound_converter" },
          { "rule": "filter_key_true", "column": "IS_ISP", "rule_set": "filter_inbound_converter" }
        ]
      },
      "postprocess": [
        {"topic": "ibc.events-to-webscrape", "rules": [{"rule": "filter_key_default", "column": "DOMAIN", "rule_set": "filter_inbound_converter"}]}
      ]
    },
    "WebScraper": {
      "data_tag": "data",
      "rules": [
        {"rule": "page_content", "rule_set": "page_content", "url_col": "REF_PARAM", "timeout": 5}
      ],
      "postprocess": [
        {"topic": "ibc.completed-activities", "rules": [{"rule": "filter_key_default", "column": "PAGE_TEXT_COUNT", "rule_set": "filter_inbound_converter"}]},
        {"topic": "ibc.failed-events", "rules": [{"rule": "keep_record_if", "column": "PAGE_TEXT_COUNT", "operator": "==", "value": -1,"rule_set": "filter_inbound_converter"}]}
      ]
    }
  }
}
