{
  "rule": "get_value_from_ip",
  "var": "gdpr_region",
  "rule_set": "inbound_converter",
  "column": "ACTIVITY_IP",
  "collection": "maxmind",
  "begin_ip_key": "start_ip_int",
  "end_ip_key": "end_ip_int",
  "document_var": "country_iso_code"
}
