{
  "data_tag": "attributes",
  "rules": [
    {
      "rule": "is_eu_allowed",
      "var": "is_eu_allowed",
      "rule_set": "inbound_converter",
      "is_eu_allowed": [1, 2, 3, 4, 5]
    },
    { "collection": "maxmind", "rule": "get_gdpr_region", "var": "REGION_CD", "rule_set": "inbound_converter" },
    { "rule": "is_gdpr_allowed", "var": "EU_ALLOWED", "rule_set": "inbound_converter", "include_gdpr_regions": ["BK"] },
    { "collection": "kickfire", "rule": "get_external_id", "var": "DOMAIN", "rule_set": "inbound_converter" }
  ],
  "load": {
    "tables": [
      {
        "table_name": "tt-pd-{}.edc_inboundconverter.inbound_converter",
        "columns": [
          "LOGSTASH_ID",
          "ACTIVITY_TYPE_ID",
          "VERSION",
          "CID",
          "REF_PARAM",
          "REFERER",
          "USER_AGENT",
          "REGION_CD",
          "EU_ALLOWED",
          "ACTIVITY_DATE",
          "DOMAIN"
        ]
      },
      {
        "table_name": "tt-pd-{}.edc_inboundconverter.ip_lookup",
        "columns": ["LOGSTASH_ID", "ACTIVITY_IP"]
      }
    ],
    "rules": [{ "rule": "filter_key", "column": "DOMAIN", "rule_set": "filter_inbound_converter" }]
  },
  "topics": {
    "write_to_bq": "projects/tt-pd-{}/topics/ibc.write-client-activity"
  }
}
