{
  "attributes": {
    "LOGSTASH_ID": "d0635b36-d2c5-46f2-9631-7d94cb80e8ec",
    "REFERER": "\"https://blog.zoom.us/\"",
    "ACTIVITY_IP": "1.0.3.255",
    "ACTIVITY_DATE": "1612274422001",
    "ACTIVITY_TYPE_ID": "31",
    "CID": "17872382",
    "VERSION": "2.0",
    "REF_PARAM": "https%3A%2F%2Fblog.zoom.us%2F&r=1606771044902",
    "USER_AGENT": "\"Mozilla/5.0 (X11; CrOS aarch64 13421.102.0) AppleWebKit/537.36 (KHTML, like Gecko) Chrome/86.0.4240.199 Safari/537.36\""
  }
}
